Precision Workshop - Handling Uncertainty Crash Course
…
Standard Error Pitfalls in R

What is the group-level precision of Sepal.Length?

Note: Treat Species as subjects (N = 3) and rows within Species as trials.

data <-
  iris %>% 
  rename(subject = Species, measure = Sepal.Length) %>% 
  mutate(trial = 1:n(), .by = subject) %>% 
  select(subject, trial, measure) %>% arrange(trial, subject) %>% tibble() #neater output
print(data)

# A tibble: 150 × 3
   subject    trial measure
   <fct>      <int>   <dbl>
 1 setosa         1     5.1
 2 versicolor     1     7  
 3 virginica      1     6.3
 4 setosa         2     4.9
 5 versicolor     2     6.4
 6 virginica      2     5.8
 7 setosa         3     4.7
 8 versicolor     3     6.9
 9 virginica      3     7.1
10 setosa         4     4.6
# ℹ 140 more rows
…
